0;9,
16384;9,
73729;9,
1;9,
32769;9,
73728;9,
8193;9,
73731;9,
2;9,
3;9,
73730;9,
4;9,
73733;9,
8196;9,
73732;9,
5;9,
32774;9,
73735;9,
7;9,
73734;9,
73737;9,
8;9,
9;9,
73736;9,
10;9,
73739;9,
32779;9,
73738;9,
16395;9,
73741;9,
73740;9,
13;9,
14;9,
73743;9,
73742;9,
15;9,
73745;9,
73744;9,
73747;9,
19;9,
73746;9,
73749;9,
73748;9,
21;9,
73751;9,
73750;9,
73753;9,
25;9,
73752;9,
73755;9,
16411;9,
73754;9,
73757;9,
73756;9,
73759;9,
40990;9,
73758;9,
73761;9,
73760;9,
73763;9,
73762;9,
73765;9,
8228;9,
73764;9,
73767;9,
73766;9,
73769;9,
73768;9,
73771;9,
8234;9,
73770;9,
73773;9,
73772;9,
73775;9,
73774;9,
8239;9,
73777;9,
73776;9,
73779;9,
73778;9,
73781;9,
73780;9,
16437;9,
73783;9,
73782;9,
73785;9,
32824;9,
73784;9,
73787;9,
73786;9,
73789;9,
73788;9,
41021;9,
73791;9,
8255;9,
73790;9,
73793;9,
8257;9,
73792;9,
73795;9,
8258;9,
73794;9,
73797;9,
73796;9,
8261;9,
73799;9,
71;9,
73798;9,
73801;9,
73;9,
73800;9,
73803;9,
75;9,
73802;9,
73805;9,
76;9,
77;9,
73804;9,
65612;9,
78;9,
73807;9,
73806;9,
79;9,
73809;9,
8273;9,
73808;9,
82;9,
73811;9,
73810;9,
84;9,
73813;9,
85;9,
73812;9,
73815;9,
73814;9,
88;9,
73817;9,
89;9,
73816;9,
73819;9,
32858;9,
90;9,
91;9,
73818;9,
73821;9,
93;9,
73820;9,
94;9,
73823;9,
95;9,
73822;9,
73825;9,
73824;9,
97;9,
73827;9,
99;9,
73826;9,
73829;9,
73828;9,
73831;9,
103;9,
8295;9,
73830;9,
104;9,
73833;9,
105;9,
73832;9,
73835;9,
106;9,
73834;9,
108;9,
73837;9,
8300;9,
41068;9,
73836;9,
73839;9,
73838;9,
73841;9,
73840;9,
73843;9,
114;9,
73842;9,
115;9,
116;9,
73845;9,
73844;9,
73847;9,
119;9,
8311;9,
73846;9,
73849;9,
73848;9,
73851;9,
73850;9,
73853;9,
125;9,
73852;9,
126;9,
73855;9,
24702;9,
127;9,
73854;9,
128;9,
73857;9,
49281;9,
129;9,
73856;9,
73859;9,
41090;9,
131;9,
73858;9,
132;9,
73861;9,
73860;9,
134;9,
73863;9,
16518;9,
135;9,
73862;9,
8327;9,
8328;9,
73865;9,
73864;9,
73867;9,
73866;9,
73869;9,
73868;9,
142;9,
73871;9,
143;9,
73870;9,
73873;9,
73872;9,
146;9,
8338;9,
73875;9,
73874;9,
32916;9,
73877;9,
73876;9,
73879;9,
150;9,
73878;9,
152;9,
73881;9,
73880;9,
154;9,
73883;9,
155;9,
73882;9,
73885;9,
157;9,
73884;9,
158;9,
73887;9,
159;9,
73886;9,
73889;9,
161;9,
73888;9,
73891;9,
162;9,
73890;9,
164;9,
73893;9,
165;9,
73892;9,
166;9,
73895;9,
73894;9,
73897;9,
8360;9,
73896;9,
169;9,
73899;9,
171;9,
73898;9,
8363;9,
73901;9,
172;9,
73900;9,
73903;9,
73902;9,
73905;9,
73904;9,
178;9,
73907;9,
73906;9,
179;9,
73909;9,
8372;9,
180;9,
73908;9,
8373;9,
182;9,
73911;9,
73910;9,
183;9,
73913;9,
185;9,
73912;9,
8377;9,
186;9,
73915;9,
73914;9,
73917;9,
73916;9,
73919;9,
190;9,
191;9,
73918;9,
8383;9,
192;9,
73921;9,
73920;9,
194;9,
73923;9,
195;9,
73922;9,
196;9,
73925;9,
73924;9,
197;9,
198;9,
73927;9,
73926;9,
73929;9,
8393;9,
73928;9,
73931;9,
202;9,
73930;9,
73933;9,
205;9,
73932;9,
206;9,
73935;9,
73934;9,
207;9,
73937;9,
73936;9,
73939;9,
73938;9,
73941;9,
8404;9,
73940;9,
24789;9,
214;9,
73943;9,
215;9,
73942;9,
216;9,
73945;9,
73944;9,
73947;9,
219;9,
73946;9,
220;9,
73949;9,
8413;9,
73948;9,
222;9,
73951;9,
223;9,
73950;9,
73953;9,
224;9,
73952;9,
73955;9,
16610;9,
73954;9,
228;9,
73957;9,
229;9,
73956;9,
73959;9,
230;9,
41190;9,
73958;9,
232;9,
73961;9,
233;9,
73960;9,
73963;9,
234;9,
73962;9,
73965;9,
236;9,
73964;9,
73967;9,
73966;9,
240;9,
73969;9,
241;9,
73968;9,
73971;9,
73970;9,
73973;9,
245;9,
73972;9,
73975;9,
247;9,
73974;9,
248;9,
73977;9,
249;9,
73976;9,
24826;9,
73979;9,
65786;9,
73978;9,
252;9,
73981;9,
253;9,
73980;9,
254;9,
73983;9,
73982;9,
255;9,
256;9,
16640;9,
73985;9,
73984;9,
73987;9,
258;9,
73986;9,
260;9,
73989;9,
73988;9,
73991;9,
263;9,
73990;9,
73993;9,
265;9,
73992;9,
73995;9,
267;9,
73994;9,
73997;9,
269;9,
73996;9,
73999;9,
271;9,
73998;9,
272;9,
74001;9,
74000;9,
49425;9,
74003;9,
41234;9,
74002;9,
276;9,
74005;9,
74004;9,
278;9,
74007;9,
279;9,
74006;9,
280;9,
74009;9,
281;9,
74008;9,
282;9,
74011;9,
74010;9,
284;9,
74013;9,
8476;9,
8477;9,
74012;9,
285;9,
74015;9,
74014;9,
74017;9,
74016;9,
74019;9,
291;9,
74018;9,
74021;9,
293;9,
74020;9,
294;9,
74023;9,
74022;9,
74025;9,
8488;9,
296;9,
74024;9,
298;9,
74027;9,
41258;9,
74026;9,
74029;9,
74028;9,
74031;9,
303;9,
74030;9,
304;9,
8496;9,
74033;9,
8497;9,
74032;9,
33073;9,
306;9,
74035;9,
74034;9,
307;9,
8499;9,
16692;9,
308;9,
74037;9,
8500;9,
16693;9,
74036;9,
310;9,
8502;9,
74039;9,
16695;9,
311;9,
74038;9,
16696;9,
312;9,
74041;9,
74040;9,
313;9,
74043;9,
314;9,
74042;9,
16700;9,
74045;9,
16701;9,
317;9,
74044;9,
318;9,
74047;9,
8511;9,
16703;9,
74046;9,
320;9,
74049;9,
321;9,
74048;9,
322;9,
74051;9,
323;9,
8515;9,
74050;9,
74053;9,
325;9,
74052;9,
16710;9,
326;9,
74055;9,
74054;9,
74057;9,
74056;9,
8521;9,
74059;9,
24907;9,
74058;9,
332;9,
74061;9,
74060;9,
41293;9,
334;9,
74063;9,
65871;9,
41294;9,
74062;9,
74065;9,
74064;9,
338;9,
74067;9,
74066;9,
74069;9,
74068;9,
74071;9,
8534;9,
74070;9,
344;9,
74073;9,
24920;9,
345;9,
74072;9,
74075;9,
74074;9,
74077;9,
8540;9,
74076;9,
74079;9,
351;9,
74078;9,
74081;9,
353;9,
74080;9,
354;9,
74083;9,
74082;9,
74085;9,
74084;9,
74087;9,
74086;9,
74089;9,
74088;9,
74091;9,
8554;9,
363;9,
8555;9,
74090;9,
74093;9,
8557;9,
74092;9,
74095;9,
8558;9,
74094;9,
16752;9,
74097;9,
74096;9,
370;9,
74099;9,
74098;9,
74101;9,
33140;9,
74100;9,
33141;9,
74103;9,
375;9,
8567;9,
74102;9,
24952;9,
74105;9,
74104;9,
377;9,
74107;9,
378;9,
379;9,
74106;9,
74109;9,
74108;9,
382;9,
74111;9,
33150;9,
383;9,
74110;9,
74113;9,
74112;9,
49537;9,
74115;9,
49539;9,
387;9,
74114;9,
388;9,
74117;9,
389;9,
33157;9,
74116;9,
390;9,
74119;9,
74118;9,
392;9,
74121;9,
65929;9,
74120;9,
394;9,
74123;9,
74122;9,
74125;9,
74124;9,
74127;9,
399;9,
74126;9,
74129;9,
74128;9,
74131;9,
74130;9,
74133;9,
74132;9,
74135;9,
74134;9,
8600;9,
74137;9,
409;9,
8601;9,
74136;9,
74139;9,
49562;9,
411;9,
74138;9,
74141;9,
412;9,
74140;9,
74143;9,
24991;9,
74142;9,
74145;9,
49568;9,
74144;9,
74147;9,
74146;9,
420;9,
74149;9,
74148;9,
74151;9,
423;9,
74150;9,
424;9,
74153;9,
74152;9,
426;9,
74155;9,
41386;9,
8619;9,
16811;9,
74154;9,
74157;9,
429;9,
74156;9,
8622;9,
74159;9,
430;9,
74158;9,
431;9,
74161;9,
432;9,
33201;9,
74160;9,
433;9,
74163;9,
25010;9,
74162;9,
74165;9,
436;9,
74164;9,
49590;9,
74167;9,
74166;9,
16823;9,
440;9,
74169;9,
74168;9,
74171;9,
442;9,
74170;9,
443;9,
74173;9,
74172;9,
74175;9,
74174;9,
74177;9,
74176;9,
74179;9,
33219;9,
74178;9,
16835;9,
74181;9,
74180;9,
454;9,
74183;9,
8647;9,
455;9,
74182;9,
74185;9,
74184;9,
457;9,
74187;9,
74186;9,
74189;9,
74188;9,
74191;9,
74190;9,
74193;9,
8656;9,
74192;9,
465;9,
74195;9,
74194;9,
74197;9,
468;9,
74196;9,
469;9,
74199;9,
470;9,
8663;9,
74198;9,
74201;9,
74200;9,
473;9,
74203;9,
474;9,
74202;9,
74205;9,
8669;9,
74204;9,
74207;9,
74206;9,
74209;9,
480;9,
74208;9,
481;9,
74211;9,
74210;9,
74213;9,
485;9,
74212;9,
25061;9,
74215;9,
16870;9,
74214;9,
74217;9,
41449;9,
74216;9,
74219;9,
74218;9,
492;9,
74221;9,
74220;9,
74223;9,
495;9,
74222;9,
74225;9,
74224;9,
74227;9,
74226;9,
74229;9,
74228;9,
8693;9,
66039;9,
74231;9,
74230;9,
504;9,
74233;9,
74232;9,
74235;9,
74234;9,
74237;9,
74236;9,
74239;9,
74238;9,
511;9,
8703;9,
74241;9,
512;9,
74240;9,
74243;9,
515;9,
74242;9,
57859;9,
74245;9,
74244;9,
74247;9,
33287;9,
74246;9,
520;9,
74249;9,
74248;9,
74251;9,
522;9,
74250;9,
524;9,
74253;9,
525;9,
74252;9,
8718;9,
74255;9,
74254;9,
74257;9,
8720;9,
529;9,
74256;9,
8722;9,
74259;9,
74258;9,
74261;9,
74260;9,
534;9,
74263;9,
8727;9,
74262;9,
33304;9,
74265;9,
537;9,
74264;9,
538;9,
74267;9,
8731;9,
539;9,
16923;9,
74266;9,
74269;9,
74268;9,
542;9,
74271;9,
543;9,
74270;9,
74273;9,
66080;9,
74272;9,
545;9,
74275;9,
74274;9,
74277;9,
8741;9,
74276;9,
74279;9,
74278;9,
552;9,
41512;9,
74281;9,
16936;9,
553;9,
74280;9,
8746;9,
16938;9,
74283;9,
8747;9,
74282;9,
74285;9,
8749;9,
74284;9,
558;9,
74287;9,
74286;9,
74289;9,
74288;9,
562;9,
74291;9,
74290;9,
564;9,
74293;9,
74292;9,
74295;9,
567;9,
66102;9,
74294;9,
74297;9,
74296;9,
570;9,
74299;9,
74298;9,
74301;9,
572;9,
74300;9,
574;9,
74303;9,
74302;9,
74305;9,
8769;9,
577;9,
74304;9,
578;9,
74307;9,
579;9,
74306;9,
74309;9,
581;9,
74308;9,
8774;9,
74311;9,
74310;9,
74313;9,
74312;9,
586;9,
74315;9,
74314;9,
74317;9,
589;9,
66124;9,
74316;9,
74319;9,
8783;9,
25167;9,
74318;9,
592;9,
8784;9,
74321;9,
593;9,
74320;9,
74323;9,
595;9,
8787;9,
74322;9,
596;9,
74325;9,
8788;9,
74324;9,
597;9,
74327;9,
8790;9,
74326;9,
600;9,
74329;9,
601;9,
74328;9,
602;9,
74331;9,
74330;9,
74333;9,
74332;9,
74335;9,
74334;9,
74337;9,
74336;9,
74339;9,
74338;9,
74341;9,
74340;9,
8806;9,
74343;9,
74342;9,
8807;9,
615;9,
74345;9,
617;9,
74344;9,
618;9,
74347;9,
74346;9,
74349;9,
621;9,
74348;9,
74351;9,
622;9,
623;9,
74350;9,
74353;9,
74352;9,
74355;9,
627;9,
8819;9,
74354;9,
74357;9,
74356;9,
74359;9,
74358;9,
74361;9,
74360;9,
74363;9,
74362;9,
74365;9,
74364;9,
74367;9,
74366;9,
640;9,
74369;9,
641;9,
74368;9,
74371;9,
74370;9,
8835;9,
74373;9,
644;9,
74372;9,
74375;9,
74374;9,
647;9,
648;9,
74377;9,
74376;9,
74379;9,
41611;9,
74378;9,
74381;9,
652;9,
74380;9,
74383;9,
8846;9,
655;9,
74382;9,
74385;9,
8849;9,
74384;9,
8850;9,
74387;9,
659;9,
74386;9,
660;9,
74389;9,
661;9,
74388;9,
74391;9,
74390;9,
74393;9,
665;9,
74392;9,
666;9,
74395;9,
667;9,
74394;9,
668;9,
74397;9,
74396;9,
8862;9,
74399;9,
74398;9,
25247;9,
74401;9,
49825;9,
74400;9,
74403;9,
74402;9,
8868;9,
41636;9,
74405;9,
74404;9,
74407;9,
74406;9,
680;9,
74409;9,
681;9,
74408;9,
74411;9,
41643;9,
58027;9,
74410;9,
74413;9,
74412;9,
49838;9,
74415;9,
8879;9,
687;9,
74414;9,
74417;9,
689;9,
74416;9,
33458;9,
74419;9,
17074;9,
74418;9,
41651;9,
74421;9,
74420;9,
694;9,
74423;9,
695;9,
74422;9,
74425;9,
8889;9,
74424;9,
74427;9,
74426;9,
74429;9,
74428;9,
74431;9,
703;9,
74430;9,
74433;9,
74432;9,
8897;9,
706;9,
74435;9,
707;9,
74434;9,
708;9,
74437;9,
74436;9,
74439;9,
74438;9,
711;9,
74441;9,
74440;9,
74443;9,
49866;9,
74442;9,
74445;9,
8909;9,
74444;9,
33486;9,
74447;9,
719;9,
74446;9,
720;9,
8912;9,
74449;9,
17105;9,
74448;9,
721;9,
74451;9,
74450;9,
17108;9,
724;9,
74453;9,
74452;9,
725;9,
17110;9,
74455;9,
74454;9,
74457;9,
74456;9,
730;9,
74459;9,
8922;9,
74458;9,
74461;9,
732;9,
41693;9,
733;9,
74460;9,
74463;9,
735;9,
74462;9,
74465;9,
74464;9,
74467;9,
74466;9,
74469;9,
74468;9,
74471;9,
743;9,
74470;9,
74473;9,
74472;9,
8938;9,
74475;9,
747;9,
8939;9,
74474;9,
8940;9,
74477;9,
74476;9,
8942;9,
74479;9,
74478;9,
74481;9,
74480;9,
74483;9,
74482;9,
8947;9,
74485;9,
74484;9,
758;9,
17142;9,
74487;9,
74486;9,
74489;9,
33529;9,
74488;9,
74491;9,
8955;9,
763;9,
74490;9,
74493;9,
74492;9,
74495;9,
767;9,
74494;9,
74497;9,
769;9,
74496;9,
74499;9,
17155;9,
74498;9,
772;9,
74501;9,
74500;9,
17158;9,
74503;9,
74502;9,
74505;9,
74504;9,
74507;9,
74506;9,
780;9,
74509;9,
17165;9,
74508;9,
782;9,
74511;9,
74510;9,
74513;9,
74512;9,
8978;9,
74515;9,
74514;9,
788;9,
74517;9,
25365;9,
74516;9,
17174;9,
58134;9,
74519;9,
791;9,
74518;9,
792;9,
74521;9,
793;9,
8985;9,
74520;9,
794;9,
74523;9,
74522;9,
74525;9,
74524;9,
798;9,
74527;9,
799;9,
74526;9,
800;9,
74529;9,
801;9,
8993;9,
74528;9,
8994;9,
74531;9,
41763;9,
74530;9,
74533;9,
17189;9,
74532;9,
74535;9,
66342;9,
74534;9,
74537;9,
809;9,
17193;9,
74536;9,
74539;9,
74538;9,
74541;9,
74540;9,
9005;9,
74543;9,
74542;9,
816;9,
74545;9,
74544;9,
74547;9,
74546;9,
74549;9,
74548;9,
74551;9,
823;9,
74550;9,
66361;9,
74553;9,
74552;9,
74555;9,
74554;9,
9020;9,
74557;9,
41788;9,
74556;9,
74559;9,
74558;9,
832;9,
74561;9,
33601;9,
74560;9,
74563;9,
834;9,
835;9,
74562;9,
74565;9,
74564;9,
25414;9,
74567;9,
74566;9,
74569;9,
33609;9,
74568;9,
41802;9,
74571;9,
842;9,
74570;9,
844;9,
74573;9,
74572;9,
74575;9,
74574;9,
74577;9,
74576;9,
17234;9,
9042;9,
74579;9,
74578;9,
74581;9,
74580;9,
50006;9,
74583;9,
74582;9,
9048;9,
74585;9,
74584;9,
9049;9,
858;9,
74587;9,
74586;9,
33628;9,
74589;9,
860;9,
74588;9,
74591;9,
863;9,
74590;9,
17248;9,
9056;9,
74593;9,
33633;9,
74592;9,
74595;9,
74594;9,
868;9,
74597;9,
74596;9,
870;9,
74599;9,
74598;9,
74601;9,
74600;9,
874;9,
74603;9,
74602;9,
74605;9,
74604;9,
74607;9,
74606;9,
879;9,
880;9,
74609;9,
881;9,
74608;9,
74611;9,
74610;9,
884;9,
74613;9,
74612;9,
74615;9,
74614;9,
74617;9,
9081;9,
41849;9,
74616;9,
74619;9,
17275;9,
9083;9,
891;9,
74618;9,
74621;9,
74620;9,
894;9,
74623;9,
74622;9,
74625;9,
66432;9,
74624;9,
74627;9,
74626;9,
74629;9,
74628;9,
9094;9,
17286;9,
74631;9,
74630;9,
25480;9,
74633;9,
74632;9,
74635;9,
74634;9,
74637;9,
74636;9,
74639;9,
74638;9,
74641;9,
74640;9,
9106;9,
74643;9,
17298;9,
74642;9,
74645;9,
17301;9,
74644;9,
41878;9,
74647;9,
74646;9,
74649;9,
17304;9,
921;9,
74648;9,
74651;9,
74650;9,
74653;9,
74652;9,
926;9,
17311;9,
50079;9,
74654;9,
9121;9,
933;9,
935;9,
936;9,
9133;9,
947;9,
33716;9,
955;9,
958;9,
964;9,
66505;9,
972;9,
974;9,
977;9,
25557;9,
9174;9,
982;9,
983;9,
985;9,
9177;9,
995;9,
9188;9,
997;9,
998;9,
9197;9,
9200;9,
33777;9,
17393;9,
1011;9,
1013;9,
33783;9,
33792;9,
1024;9,
17408;9,
58386;9,
9237;9,
1046;9,
1048;9,
17433;9,
25631;9,
1064;9,
17449;9,
1065;9,
33836;9,
9261;9,
9262;9,
1072;9,
1077;9,
1078;9,
17463;9,
33848;9,
1080;9,
9276;9,
66620;9,
9281;9,
1091;9,
17475;9,
17477;9,
42056;9,
25692;9,
25693;9,
17502;9,
25696;9,
1122;9,
9315;9,
33892;9,
1124;9,
1125;9,
1126;9,
1127;9,
17512;9,
1129;9,
1130;9,
1133;9,
1138;9,
17525;9,
33916;9,
9341;9,
1150;9,
9342;9,
9343;9,
42113;9,
17538;9,
17543;9,
9357;9,
33934;9,
17555;9,
1177;9,
50329;9,
9370;9,
9372;9,
42143;9,
1187;9,
1188;9,
1194;9,
9386;9,
25771;9,
42158;9,
50353;9,
1206;9,
1218;9,
42178;9,
25796;9,
9412;9,
1222;9,
66761;9,
1225;9,
17611;9,
33995;9,
9423;9,
1233;9,
1237;9,
1238;9,
1241;9,
1242;9,
1243;9,
1245;9,
1250;9,
50402;9,
1252;9,
1253;9,
1257;9,
1259;9,
1260;9,
17644;9,
9452;9,
25838;9,
66799;9,
1266;9,
9458;9,
34037;9,
17654;9,
9462;9,
1272;9,
9469;9,
1281;9,
9475;9,
1288;9,
1290;9,
1292;9,
1295;9,
1296;9,
1297;9,
1299;9,
1300;9,
1301;9,
1302;9,
1304;9,
34072;9,
1305;9,
1308;9,
1310;9,
9502;9,
1311;9,
1313;9,
1317;9,
1322;9,
1323;9,
42286;9,
1327;9,
1328;9,
1329;9,
1335;9,
25912;9,
1337;9,
9530;9,
25917;9,
9533;9,
1342;9,
9537;9,
1346;9,
1347;9,
42310;9,
1355;9,
42318;9,
9556;9,
1365;9,
9559;9,
1367;9,
1368;9,
9561;9,
1370;9,
58714;9,
17754;9,
50525;9,
9568;9,
1377;9,
1383;9,
1385;9,
1391;9,
1396;9,
1404;9,
1406;9,
50561;9,
42370;9,
17794;9,
1410;9,
1413;9,
9605;9,
1415;9,
9617;9,
26001;9,
9619;9,
1431;9,
1432;9,
1433;9,
1436;9,
1439;9,
9631;9,
17824;9,
9633;9,
1441;9,
34212;9,
26022;9,
1446;9,
1450;9,
17836;9,
1454;9,
9646;9,
58801;9,
1462;9,
17847;9,
26043;9,
1468;9,
1470;9,
1478;9,
17862;9,
26057;9,
42444;9,
50636;9,
50637;9,
1486;9,
17870;9,
1488;9,
1490;9,
42466;9,
9700;9,
17893;9,
9702;9,
17894;9,
1510;9,
1513;9,
9711;9,
1530;9,
50682;9,
17916;9,
1533;9,
58881;9,
1537;9,
1540;9,
42501;9,
17928;9,
1547;9,
1551;9,
34320;9,
1554;9,
67091;9,
1555;9,
1559;9,
26136;9,
17945;9,
1568;9,
17952;9,
1569;9,
17953;9,
1572;9,
1573;9,
1575;9,
1580;9,
34351;9,
1584;9,
1586;9,
1595;9,
9788;9,
42559;9,
9792;9,
9795;9,
34373;9,
1608;9,
1611;9,
26189;9,
1614;9,
1615;9,
1617;9,
1621;9,
9816;9,
1626;9,
1627;9,
67162;9,
9820;9,
1629;9,
1635;9,
9828;9,
1638;9,
50793;9,
1642;9,
1645;9,
18029;9,
9839;9,
1648;9,
1652;9,
9844;9,
59000;9,
9848;9,
1657;9,
67192;9,
18042;9,
26235;9,
18043;9,
18047;9,
18049;9,
1670;9,
9864;9,
59017;9,
1675;9,
50828;9,
1677;9,
1678;9,
67217;9,
18067;9,
18072;9,
1689;9,
1690;9,
1693;9,
67233;9,
50848;9,
1697;9,
1704;9,
1706;9,
26282;9,
1707;9,
59054;9,
1714;9,
1721;9,
9913;9,
1724;9,
18113;9,
1743;9,
18130;9,
1748;9,
1749;9,
18134;9,
50905;9,
9947;9,
67295;9,
1760;9,
1763;9,
1766;9,
1770;9,
1774;9,
1777;9,
1781;9,
18166;9,
1783;9,
1786;9,
18171;9,
1803;9,
1806;9,
1811;9,
1817;9,
1826;9,
1828;9,
1829;9,
1830;9,
1832;9,
1834;9,
1835;9,
42795;9,
1836;9,
1837;9,
1838;9,
1840;9,
1851;9,
1854;9,
1856;9,
1859;9,
1860;9,
1863;9,
1864;9,
10057;9,
1867;9,
1869;9,
1871;9,
10070;9,
34653;9,
1890;9,
10082;9,
1891;9,
1892;9,
1897;9,
1903;9,
1905;9,
1907;9,
1909;9,
34678;9,
51069;9,
18312;9,
1929;9,
1930;9,
1932;9,
1939;9,
1943;9,
10136;9,
34715;9,
10140;9,
1951;9,
1953;9,
1956;9,
1957;9,
1961;9,
1962;9,
10155;9,
42925;9,
10159;9,
10160;9,
42930;9,
1971;9,
10163;9,
1973;9,
1974;9,
1975;9,
18359;9,
59320;9,
1977;9,
10169;9,
1979;9,
1980;9,
10176;9,
1987;9,
10184;9,
42954;9,
1996;9,
10198;9,
2007;9,
2013;9,
2014;9,
34784;9,
2016;9,
2017;9,
2019;9,
2021;9,
18406;9,
26598;9,
10217;9,
34794;9,
67566;9,
26607;9,
2033;9,
10225;9,
18424;9,
26617;9,
34809;9,
2049;9,
2053;9,
2060;9,
2065;9,
2068;9,
10270;9,
43041;9,
18465;9,
2082;9,
2085;9,
43045;9,
2086;9,
34855;9,
2087;9,
10283;9,
2099;9,
18491;9,
10306;9,
2118;9,
2119;9,
10312;9,
2121;9,
10313;9,
2127;9,
2128;9,
2130;9,
10322;9,
10324;9,
43094;9,
18519;9,
10327;9,
2137;9,
2140;9,
2142;9,
51299;9,
10339;9,
26726;9,
18535;9,
26727;9,
2159;9,
2160;9,
10355;9,
2168;9,
2169;9,
2172;9,
2176;9,
10369;9,
2184;9,
10377;9,
2187;9,
2190;9,
67734;9,
2200;9,
2201;9,
2204;9,
2207;9,
18592;9,
2208;9,
34981;9,
2218;9,
10412;9,
51376;9,
67760;9,
26810;9,
2241;9,
10436;9,
2244;9,
18628;9,
2245;9,
2248;9,
10446;9,
2255;9,
2256;9,
2261;9,
26837;9,
18646;9,
2262;9,
2267;9,
10459;9,
2269;9,
18657;9,
10468;9,
10470;9,
2281;9,
2285;9,
59630;9,
2289;9,
2290;9,
2292;9,
51445;9,
18682;9,
2299;9,
59649;9,
2306;9,
2308;9,
2309;9,
2312;9,
10506;9,
2315;9,
10508;9,
18703;9,
35088;9,
2322;9,
67858;9,
10521;9,
2331;9,
2336;9,
26915;9,
10534;9,
18727;9,
10537;9,
26923;9,
59695;9,
2354;9,
18739;9,
2358;9,
2360;9,
2361;9,
2363;9,
2364;9,
2365;9,
67900;9,
2371;9,
2375;9,
18760;9,
2376;9,
26953;9,
2377;9,
2378;9,
10572;9,
10573;9,
67916;9,
18767;9,
2385;9,
59736;9,
59738;9,
51547;9,
2396;9,
2397;9,
18783;9,
2404;9,
10603;9,
2413;9,
2419;9,
2421;9,
10613;9,
18808;9,
2430;9,
2431;9,
2436;9,
10633;9,
2441;9,
10636;9,
2445;9,
2447;9,
18836;9,
2452;9,
2456;9,
2458;9,
18846;9,
10657;9,
10663;9,
35245;9,
27053;9,
2478;9,
10670;9,
2479;9,
10672;9,
2481;9,
2484;9,
43447;9,
10681;9,
2491;9,
35262;9,
2496;9,
43462;9,
2504;9,
43465;9,
2507;9,
35285;9,
2520;9,
27097;9,
18910;9,
2531;9,
2532;9,
2533;9,
2536;9,
10730;9,
2542;9,
2544;9,
35313;9,
2545;9,
10737;9,
18930;9,
10740;9,
2549;9,
2550;9,
43514;9,
2557;9,
2559;9,
2560;9,
2561;9,
35335;9,
2570;9,
2573;9,
10770;9,
51731;9,
18963;9,
27159;9,
2583;9,
2586;9,
18970;9,
2587;9,
2588;9,
18984;9,
10797;9,
10801;9,
18997;9,
19002;9,
51773;9,
2622;9,
2623;9,
2627;9,
2630;9,
19014;9,
2631;9,
2634;9,
2637;9,
2640;9,
2645;9,
2648;9,
2651;9,
2653;9,
2658;9,
27234;9,
19044;9,
19049;9,
10860;9,
2671;9,
2676;9,
35445;9,
19062;9,
2681;9,
43641;9,
2682;9,
10876;9,
2686;9,
10879;9,
2690;9,
2692;9,
10885;9,
2693;9,
43660;9,
2701;9,
19086;9,
2706;9,
2716;9,
10909;9,
2718;9,
10910;9,
10911;9,
19109;9,
10918;9,
27306;9,
2733;9,
51886;9,
60085;9,
19137;9,
10953;9,
2765;9,
27342;9,
2772;9,
2778;9,
2779;9,
2781;9,
2784;9,
19169;9,
35560;9,
51944;9,
2794;9,
2796;9,
10988;9,
35565;9,
51956;9,
2810;9,
2811;9,
27398;9,
2827;9,
2830;9,
35598;9,
2831;9,
2838;9,
11033;9,
11035;9,
27421;9,
19236;9,
2853;9,
19242;9,
2862;9,
11054;9,
27439;9,
35632;9,
27442;9,
2867;9,
11059;9,
35635;9,
11063;9,
2883;9,
52035;9,
43844;9,
11076;9,
11082;9,
2891;9,
2899;9,
35670;9,
2904;9,
2905;9,
2907;9,
11110;9,
2919;9,
19303;9,
2923;9,
2925;9,
2926;9,
2927;9,
19312;9,
11127;9,
19321;9,
2937;9,
43898;9,
19323;9,
2944;9,
2945;9,
2952;9,
11148;9,
2957;9,
2960;9,
2961;9,
11154;9,
2963;9,
2967;9,
2970;9,
35739;9,
2974;9,
11167;9,
2976;9,
2982;9,
2983;9,
2984;9,
2987;9,
19373;9,
11181;9,
19376;9,
2999;9,
3005;9,
3006;9,
3012;9,
27589;9,
3015;9,
3024;9,
3027;9,
27603;9,
3028;9,
43989;9,
11223;9,
3034;9,
3037;9,
3040;9,
11234;9,
44006;9,
11239;9,
3048;9,
3052;9,
19437;9,
3054;9,
3055;9,
3059;9,
3060;9,
3063;9,
3064;9,
3067;9,
3070;9,
3074;9,
44034;9,
3075;9,
3080;9,
11273;9,
3082;9,
19470;9,
11279;9,
3088;9,
3089;9,
3090;9,
3091;9,
27669;9,
3095;9,
11288;9,
11290;9,
3102;9,
3103;9,
3104;9,
27684;9,
3111;9,
11304;9,
19500;9,
3117;9,
11309;9,
19503;9,
52272;9,
3126;9,
3128;9,
27708;9,
52284;9,
11325;9,
3133;9,
19517;9,
3136;9,
3138;9,
3141;9,
3142;9,
11335;9,
3144;9,
3145;9,
27723;9,
27729;9,
3158;9,
3159;9,
3161;9,
19548;9,
3166;9,
3167;9,
3174;9,
3175;9,
27755;9,
3179;9,
3180;9,
11372;9,
3182;9,
35950;9,
3187;9,
27763;9,
60534;9,
3190;9,
27766;9,
52344;9,
3194;9,
35964;9,
44156;9,
3202;9,
3203;9,
3204;9,
11397;9,
3206;9,
3208;9,
3209;9,
19593;9,
3211;9,
3215;9,
3217;9,
19604;9,
11412;9,
3222;9,
27799;9,
3223;9,
11416;9,
3226;9,
35996;9,
27806;9,
3233;9,
27809;9,
68770;9,
27811;9,
44196;9,
27813;9,
27815;9,
19624;9,
3240;9,
27816;9,
27817;9,
3242;9,
27818;9,
27819;9,
27821;9,
3249;9,
27825;9,
19634;9,
3250;9,
27829;9,
36022;9,
27830;9,
3255;9,
27833;9,
27834;9,
3259;9,
27835;9,
27836;9,
27837;9,
27839;9,
27841;9,
27842;9,
27843;9,
19651;9,
44228;9,
27844;9,
3269;9,
27845;9,
11462;9,
27846;9,
36041;9,
27849;9,
19658;9,
3274;9,
27852;9,
19661;9,
27854;9,
27855;9,
19664;9,
27856;9,
27857;9,
27858;9,
3283;9,
27860;9,
27861;9,
52438;9,
27862;9,
27863;9,
27864;9,
3289;9,
36058;9,
3291;9,
3293;9,
3296;9,
27874;9,
3299;9,
27876;9,
44261;9,
3302;9,
27878;9,
3304;9,
27880;9,
3306;9,
3308;9,
52461;9,
27885;9,
27886;9,
3311;9,
3313;9,
27890;9,
27891;9,
27893;9,
11513;9,
27898;9,
27900;9,
27901;9,
3328;9,
27904;9,
27905;9,
36099;9,
3332;9,
27908;9,
27910;9,
27911;9,
27915;9,
27916;9,
27917;9,
27918;9,
27919;9,
27920;9,
27921;9,
3346;9,
27922;9,
27923;9,
36116;9,
27924;9,
27925;9,
27926;9,
3351;9,
11543;9,
27927;9,
3353;9,
11545;9,
27929;9,
27930;9,
27933;9,
27934;9,
27938;9,
27939;9,
27941;9,
27942;9,
3367;9,
27943;9,
27944;9,
11561;9,
27945;9,
3370;9,
27947;9,
3371;9,
11564;9,
27948;9,
27949;9,
27950;9,
27951;9,
27952;9,
27953;9,
3378;9,
27954;9,
27955;9,
11572;9,
27956;9,
27957;9,
27958;9,
27959;9,
3383;9,
11577;9,
3385;9,
3386;9,
3387;9,
27963;9,
3388;9,
27964;9,
3389;9,
27965;9,
27966;9,
27967;9,
3394;9,
27971;9,
27973;9,
27974;9,
52552;9,
27976;9,
27977;9,
27978;9,
27979;9,
3404;9,
27980;9,
11597;9,
27981;9,
3406;9,
27983;9,
27984;9,
27985;9,
27986;9,
27987;9,
27988;9,
27989;9,
27990;9,
27991;9,
11608;9,
27992;9,
27993;9,
19802;9,
27994;9,
27995;9,
3420;9,
27996;9,
27997;9,
11614;9,
27998;9,
27999;9,
3424;9,
28000;9,
28001;9,
28002;9,
28003;9,
28004;9,
28008;9,
44394;9,
3435;9,
3436;9,
28012;9,
28013;9,
19822;9,
3438;9,
28014;9,
3440;9,
3441;9,
52594;9,
28019;9,
28020;9,
28021;9,
28022;9,
28023;9,
28024;9,
3449;9,
28028;9,
11645;9,
28030;9,
3455;9,
28033;9,
3458;9,
28034;9,
3459;9,
28035;9,
28036;9,
28037;9,
3462;9,
28040;9,
28042;9,
28044;9,
28046;9,
28047;9,
3472;9,
28048;9,
3473;9,
28049;9,
28050;9,
3475;9,
28051;9,
3476;9,
3477;9,
28053;9,
3478;9,
28054;9,
28057;9,
28058;9,
52635;9,
3483;9,
28059;9,
28060;9,
28061;9,
28063;9,
19873;9,
3490;9,
28067;9,
28068;9,
28069;9,
11686;9,
28070;9,
28071;9,
44456;9,
3496;9,
28072;9,
28073;9,
28074;9,
28075;9,
3500;9,
28076;9,
3501;9,
28077;9,
28079;9,
3506;9,
19894;9,
19897;9,
28089;9,
28091;9,
28092;9,
28093;9,
28097;9,
28098;9,
36291;9,
3523;9,
28099;9,
36292;9,
28100;9,
36293;9,
3525;9,
28101;9,
28102;9,
28103;9,
3528;9,
28104;9,
60873;9,
28105;9,
28106;9,
36299;9,
52683;9,
28107;9,
11724;9,
28108;9,
36301;9,
28109;9,
28110;9,
28111;9,
3536;9,
28112;9,
28113;9,
28114;9,
28115;9,
3540;9,
52692;9,
11732;9,
28116;9,
28117;9,
11734;9,
3544;9,
28121;9,
28122;9,
28123;9,
28124;9,
28125;9,
28126;9,
36319;9,
28127;9,
28128;9,
28129;9,
28130;9,
28131;9,
28132;9,
3557;9,
28133;9,
3559;9,
3562;9,
28138;9,
19947;9,
28139;9,
28141;9,
19950;9,
3567;9,
36335;9,
28143;9,
28144;9,
3570;9,
28147;9,
3572;9,
28150;9,
28151;9,
28152;9,
3578;9,
3581;9,
3583;9,
36352;9,
3584;9,
19969;9,
28164;9,
3589;9,
28168;9,
3592;9,
3595;9,
3597;9,
11790;9,
3604;9,
28181;9,
28185;9,
11801;9,
28189;9,
36382;9,
28194;9,
28195;9,
11811;9,
28199;9,
36393;9,
28202;9,
36394;9,
3639;9,
3640;9,
3642;9,
3645;9,
28226;9,
44610;9,
3652;9,
3654;9,
3655;9,
28232;9,
20044;9,
52814;9,
3664;9,
28240;9,
28243;9,
3672;9,
36440;9,
3673;9,
28253;9,
3679;9,
3683;9,
11881;9,
28266;9,
3692;9,
11885;9,
36462;9,
3694;9,
3698;9,
11893;9,
3702;9,
11895;9,
3704;9,
28281;9,
3706;9,
3707;9,
11904;9,
3714;9,
52867;9,
11909;9,
28296;9,
11914;9,
3726;9,
3729;9,
3731;9,
3732;9,
28309;9,
28312;9,
3739;9,
3741;9,
11933;9,
3742;9,
20127;9,
28325;9,
3751;9,
3755;9,
3759;9,
3760;9,
3765;9,
28342;9,
11972;9,
20165;9,
20167;9,
3788;9,
36557;9,
3789;9,
36558;9,
3796;9,
11989;9,
28377;9,
3803;9,
3805;9,
3810;9,
28386;9,
3811;9,
12004;9,
69349;9,
28389;9,
12009;9,
12012;9,
28404;9,
12021;9,
61174;9,
28413;9,
28414;9,
61182;9,
12038;9,
28424;9,
28428;9,
28429;9,
20244;9,
3861;9,
3865;9,
12059;9,
3870;9,
3871;9,
20266;9,
3884;9,
3886;9,
36654;9,
3888;9,
36657;9,
3891;9,
3893;9,
12086;9,
36663;9,
12088;9,
28473;9,
3898;9,
53052;9,
3900;9,
3902;9,
3904;9,
20288;9,
53058;9,
3907;9,
3908;9,
69446;9,
36681;9,
3917;9,
3919;9,
53071;9,
3921;9,
28497;9,
3923;9,
28499;9,
20308;9,
3925;9,
3926;9,
53078;9,
28503;9,
53079;9,
3928;9,
53080;9,
28505;9,
53081;9,
53082;9,
53083;9,
28510;9,
3935;9,
3937;9,
3938;9,
36708;9,
3942;9,
69478;9,
3943;9,
3944;9,
3945;9,
28524;9,
3948;9,
36722;9,
28537;9,
36743;9,
36744;9,
3978;9,
3980;9,
3981;9,
53136;9,
3988;9,
28568;9,
44954;9,
36763;9,
12189;9,
44958;9,
20392;9,
28588;9,
36781;9,
20401;9,
4017;9,
28594;9,
12213;9,
28597;9,
12215;9,
20412;9,
36797;9,
4030;9,
4032;9,
4034;9,
36805;9,
61383;9,
4040;9,
4042;9,
4046;9,
28627;9,
12244;9,
12245;9,
36830;9,
12254;9,
4067;9,
4069;9,
4070;9,
4074;9,
4077;9,
12270;9,
36853;9,
28668;9,
12285;9,
36862;9,
4095;9,
4097;9,
4100;9,
4106;9,
20492;9,
4108;9,
4111;9,
69646;9,
12305;9,
4114;9,
28691;9,
28692;9,
20504;9,
45083;9,
12316;9,
4125;9,
4128;9,
28712;9,
4136;9,
4142;9,
20527;9,
4144;9,
4146;9,
28725;9,
4151;9,
28727;9,
45113;9,
12354;9,
53315;9,
4164;9,
36932;9,
28741;9,
4170;9,
4173;9,
28752;9,
4176;9,
61521;9,
4178;9,
4186;9,
4191;9,
4193;9,
36963;9,
4200;9,
4203;9,
4204;9,
4205;9,
4206;9,
4212;9,
12425;9,
4234;9,
12429;9,
12430;9,
12434;9,
53397;9,
4247;9,
4249;9,
4258;9,
20646;9,
4264;9,
4265;9,
4266;9,
4268;9,
4276;9,
4277;9,
4279;9,
12474;9,
4283;9,
4284;9,
4286;9,
4287;9,
12483;9,
12485;9,
28872;9,
4296;9,
12492;9,
28879;9,
4305;9,
4306;9,
69843;9,
4308;9,
28888;9,
4312;9,
4313;9,
69848;9,
61661;9,
53477;9,
37095;9,
61672;9,
12524;9,
4333;9,
12527;9,
28913;9,
4339;9,
53495;9,
4343;9,
4344;9,
4351;9,
69889;9,
37121;9,
28936;9,
4362;9,
28942;9,
53519;9,
12564;9,
28948;9,
12566;9,
4375;9,
4376;9,
12569;9,
20764;9,
37158;9,
4397;9,
37174;9,
45367;9,
20792;9,
28986;9,
53562;9,
12603;9,
12604;9,
4415;9,
28993;9,
12610;9,
4422;9,
29001;9,
4427;9,
29004;9,
61774;9,
4433;9,
12625;9,
4436;9,
37206;9,
37210;9,
20828;9,
29025;9,
29029;9,
12646;9,
4455;9,
20839;9,
37225;9,
29034;9,
12650;9,
37230;9,
4462;9,
20848;9,
20849;9,
29041;9,
4470;9,
4474;9,
29052;9,
29053;9,
37249;9,
4485;9,
4486;9,
20872;9,
4496;9,
4505;9,
4506;9,
12698;9,
37275;9,
4508;9,
4509;9,
29087;9,
4511;9,
29088;9,
12706;9,
4515;9,
20901;9,
4521;9,
4526;9,
12721;9,
12725;9,
4533;9,
12726;9,
70075;9,
4549;9,
45512;9,
12746;9,
20943;9,
29138;9,
20949;9,
4568;9,
4572;9,
12764;9,
4573;9,
20957;9,
4575;9,
12770;9,
4578;9,
4579;9,
4581;9,
12775;9,
53737;9,
4586;9,
4588;9,
29169;9,
70131;9,
20987;9,
29179;9,
4608;9,
4609;9,
4610;9,
4612;9,
4614;9,
4616;9,
37385;9,
70152;9,
29195;9,
4623;9,
29201;9,
45586;9,
4631;9,
4632;9,
4635;9,
4638;9,
4640;9,
21026;9,
12841;9,
4651;9,
12846;9,
4654;9,
4656;9,
37426;9,
4662;9,
37431;9,
21049;9,
29243;9,
4669;9,
4673;9,
12866;9,
4677;9,
4679;9,
4682;9,
45645;9,
4693;9,
37469;9,
37475;9,
29286;9,
29287;9,
37482;9,
29292;9,
12914;9,
4722;9,
4723;9,
21108;9,
4727;9,
4729;9,
4731;9,
4732;9,
29319;9,
29321;9,
37515;9,
4750;9,
12942;9,
21137;9,
4753;9,
4754;9,
4755;9,
70293;9,
12949;9,
21145;9,
45723;9,
21149;9,
4766;9,
29342;9,
4768;9,
4769;9,
29351;9,
4781;9,
4787;9,
4790;9,
4791;9,
4792;9,
29369;9,
21178;9,
4798;9,
4801;9,
4811;9,
4812;9,
29388;9,
13004;9,
29392;9,
29400;9,
4825;9,
29406;9,
21214;9,
13027;9,
53988;9,
4836;9,
21221;9,
4841;9,
29420;9,
4851;9,
4856;9,
4857;9,
4858;9,
4863;9,
62209;9,
4870;9,
4873;9,
4874;9,
37642;9,
37645;9,
4878;9,
4883;9,
4891;9,
4894;9,
4898;9,
13094;9,
29483;9,
4908;9,
45869;9,
29489;9,
4919;9,
4923;9,
29502;9,
4928;9,
37697;9,
13123;9,
4933;9,
4934;9,
37702;9,
4938;9,
4942;9,
29519;9,
4946;9,
4947;9,
21332;9,
4950;9,
29533;9,
62301;9,
13150;9,
4960;9,
4961;9,
4962;9,
13157;9,
21355;9,
4975;9,
4976;9,
4978;9,
29559;9,
4984;9,
4986;9,
4987;9,
4989;9,
4990;9,
4997;9,
13191;9,
5018;9,
29597;9,
5024;9,
5026;9,
21420;9,
5041;9,
5053;9,
37824;9,
5061;9,
62406;9,
5065;9,
21451;9,
37835;9,
29645;9,
46033;9,
13268;9,
5088;9,
5089;9,
5092;9,
13285;9,
5099;9,
5100;9,
46070;9,
13303;9,
5112;9,
46073;9,
37888;9,
13314;9,
21509;9,
5126;9,
5127;9,
5131;9,
5134;9,
29716;9,
5142;9,
5148;9,
5151;9,
13349;9,
5158;9,
5165;9,
5166;9,
5169;9,
5171;9,
37939;9,
5173;9,
5174;9,
5175;9,
29753;9,
5178;9,
5179;9,
5180;9,
5185;9,
21573;9,
21577;9,
5199;9,
5204;9,
21593;9,
5234;9,
21621;9,
38023;9,
13449;9,
5257;9,
62604;9,
5268;9,
13461;9,
38047;9,
5281;9,
21667;9,
5291;9,
5297;9,
21686;9,
13494;9,
62662;9,
5319;9,
29907;9,
38102;9,
13528;9,
54491;9,
5340;9,
5343;9,
5349;9,
5355;9,
38123;9,
70894;9,
21754;9,
5372;9,
13565;9,
21757;9,
5376;9,
38146;9,
21763;9,
54531;9,
21765;9,
5383;9,
29960;9,
5393;9,
13587;9,
70932;9,
5404;9,
5406;9,
29990;9,
5415;9,
21803;9,
21806;9,
5425;9,
5426;9,
38194;9,
5427;9,
5433;9,
30011;9,
5435;9,
13627;9,
38204;9,
5440;9,
13639;9,
5449;9,
38231;9,
5465;9,
30046;9,
46431;9,
5471;9,
5472;9,
5473;9,
21870;9,
38254;9,
5489;9,
46466;9,
30084;9,
21893;9,
5509;9,
38278;9,
54676;9,
30109;9,
5539;9,
38312;9,
5545;9,
5548;9,
5549;9,
5551;9,
5556;9,
5557;9,
38328;9,
5569;9,
46530;9,
5573;9,
5580;9,
46541;9,
5581;9,
71119;9,
5583;9,
30159;9,
5584;9,
5588;9,
5589;9,
5602;9,
30179;9,
38374;9,
5607;9,
5610;9,
13808;9,
5618;9,
13814;9,
5624;9,
38394;9,
22012;9,
54781;9,
5631;9,
5635;9,
38405;9,
5640;9,
5643;9,
5650;9,
62996;9,
5656;9,
30233;9,
5658;9,
5659;9,
5660;9,
46622;9,
5665;9,
22058;9,
38444;9,
5679;9,
5683;9,
5685;9,
5691;9,
13884;9,
5692;9,
5694;9,
30271;9,
5702;9,
13895;9,
5706;9,
30282;9,
5707;9,
63054;9,
71250;9,
38485;9,
5719;9,
22108;9,
5727;9,
13920;9,
54883;9,
13926;9,
5736;9,
22123;9,
5740;9,
5741;9,
5742;9,
5747;9,
5749;9,
5752;9,
5755;9,
30335;9,
5759;9,
5761;9,
22148;9,
5767;9,
38540;9,
5773;9,
5779;9,
13974;9,
5787;9,
5797;9,
5805;9,
5806;9,
5807;9,
5808;9,
5809;9,
22195;9,
46774;9,
63158;9,
46777;9,
54971;9,
30395;9,
5823;9,
5827;9,
22211;9,
5828;9,
5834;9,
5835;9,
38607;9,
5841;9,
5842;9,
5850;9,
14045;9,
5866;9,
5868;9,
5870;9,
30446;9,
5874;9,
55035;9,
5886;9,
14081;9,
38660;9,
5893;9,
46860;9,
38669;9,
5905;9,
30483;9,
14101;9,
5909;9,
5914;9,
30498;9,
5924;9,
30506;9,
38698;9,
5939;9,
71477;9,
30523;9,
5949;9,
5963;9,
5964;9,
38732;9,
14157;9,
5966;9,
30547;9,
5974;9,
5981;9,
30561;9,
5990;9,
22379;9,
22383;9,
6003;9,
14203;9,
6011;9,
14207;9,
22399;9,
6017;9,
30593;9,
6019;9,
6024;9,
6026;9,
6028;9,
22412;9,
6031;9,
6035;9,
6037;9,
38805;9,
14230;9,
6047;9,
14239;9,
6048;9,
55201;9,
6054;9,
22439;9,
14256;9,
6073;9,
6077;9,
6086;9,
14283;9,
47055;9,
30672;9,
6097;9,
6107;9,
30688;9,
6118;9,
6128;9,
38897;9,
22516;9,
71673;9,
55290;9,
6144;9,
30727;9,
47118;9,
6169;9,
6170;9,
47130;9,
55323;9,
14370;9,
14372;9,
55335;9,
6194;9,
38967;9,
6201;9,
14398;9,
6216;9,
38987;9,
6222;9,
22612;9,
6237;9,
6245;9,
14439;9,
30826;9,
6253;9,
63600;9,
47236;9,
6283;9,
6285;9,
14487;9,
30872;9,
6299;9,
39070;9,
14503;9,
14506;9,
6328;9,
30904;9,
22716;9,
6334;9,
6335;9,
6339;9,
6347;9,
63692;9,
71888;9,
6353;9,
14547;9,
55510;9,
6359;9,
39129;9,
14554;9,
6364;9,
6370;9,
6374;9,
6376;9,
6378;9,
6382;9,
39154;9,
6388;9,
6390;9,
30972;9,
6398;9,
30976;9,
55554;9,
6408;9,
22798;9,
22807;9,
71967;9,
39204;9,
63782;9,
22834;9,
6452;9,
14648;9,
31034;9,
39226;9,
47420;9,
6464;9,
47425;9,
6465;9,
6467;9,
14660;9,
6470;9,
6478;9,
6482;9,
6487;9,
6494;9,
6495;9,
72032;9,
6508;9,
22896;9,
14704;9,
14706;9,
6515;9,
6519;9,
39288;9,
6522;9,
39291;9,
6527;9,
14723;9,
6552;9,
63905;9,
14758;9,
6581;9,
14777;9,
6591;9,
6593;9,
6602;9,
6604;9,
6605;9,
72145;9,
6625;9,
6628;9,
6636;9,
39404;9,
6641;9,
14833;9,
6650;9,
39425;9,
6661;9,
39432;9,
31248;9,
14865;9,
39441;9,
6677;9,
6681;9,
31264;9,
6690;9,
6695;9,
6696;9,
14889;9,
23083;9,
6702;9,
23088;9,
23089;9,
31281;9,
23095;9,
23097;9,
39481;9,
31297;9,
23106;9,
14916;9,
6727;9,
23121;9,
6744;9,
31321;9,
14939;9,
6754;9,
6755;9,
6756;9,
14951;9,
6765;9,
39535;9,
6769;9,
6770;9,
14965;9,
6773;9,
6774;9,
6775;9,
14969;9,
6778;9,
31357;9,
23174;9,
47752;9,
6798;9,
6801;9,
14994;9,
6805;9,
31383;9,
6808;9,
39577;9,
47770;9,
6813;9,
6818;9,
6825;9,
15017;9,
15021;9,
6829;9,
55983;9,
31408;9,
39601;9,
6839;9,
6846;9,
47811;9,
31429;9,
6857;9,
23242;9,
6859;9,
31441;9,
23250;9,
39635;9,
15061;9,
39638;9,
15065;9,
6874;9,
23258;9,
47835;9,
6882;9,
56035;9,
6889;9,
6893;9,
6894;9,
6899;9,
6904;9,
15100;9,
47868;9,
23293;9,
6913;9,
6920;9,
6924;9,
6929;9,
31509;9,
6934;9,
15127;9,
39705;9,
6937;9,
15137;9,
6948;9,
6953;9,
56115;9,
6968;9,
6969;9,
6970;9,
23360;9,
6980;9,
6981;9,
6985;9,
6998;9,
7004;9,
7010;9,
72547;9,
7013;9,
7016;9,
31600;9,
7025;9,
23412;9,
7028;9,
7032;9,
31612;9,
7042;9,
39810;9,
23432;9,
7050;9,
39820;9,
7058;9,
7065;9,
7067;9,
31647;9,
48033;9,
7074;9,
7076;9,
64427;9,
7085;9,
15282;9,
7091;9,
7093;9,
7095;9,
39866;9,
7102;9,
31678;9,
23499;9,
7117;9,
7128;9,
7130;9,
15323;9,
64477;9,
7138;9,
7141;9,
31717;9,
72687;9,
7150;9,
31728;9,
23538;9,
23543;9,
7162;9,
23551;9,
7171;9,
31765;9,
7192;9,
48152;9,
7193;9,
7197;9,
7198;9,
7199;9,
7208;9,
56361;9,
7213;9,
7217;9,
7220;9,
48185;9,
15418;9,
7227;9,
23614;9,
31807;9,
31813;9,
7247;9,
7251;9,
40022;9,
40045;9,
23664;9,
23665;9,
31864;9,
40056;9,
7293;9,
56449;9,
31874;9,
48261;9,
31883;9,
40081;9,
7316;9,
7319;9,
48280;9,
48281;9,
31899;9,
56478;9,
72864;9,
23716;9,
7347;9,
7354;9,
31932;9,
7361;9,
31939;9,
23766;9,
23768;9,
7391;9,
7403;9,
15598;9,
31982;9,
7408;9,
31985;9,
31994;9,
31995;9,
23810;9,
64782;9,
32020;9,
56599;9,
40222;9,
23839;9,
15649;9,
7460;9,
15661;9,
32045;9,
7470;9,
40253;9,
7487;9,
40256;9,
23873;9,
40258;9,
56650;9,
15695;9,
32082;9,
7517;9,
32102;9,
40304;9,
40309;9,
40315;9,
15741;9,
40319;9,
7557;9,
7558;9,
15753;9,
7576;9,
32152;9,
32153;9,
40352;9,
7585;9,
7588;9,
7593;9,
7596;9,
7597;9,
15790;9,
32175;9,
40383;9,
7616;9,
7633;9,
56788;9,
24036;9,
40424;9,
32234;9,
7659;9,
15855;9,
48631;9,
24057;9,
7673;9,
7680;9,
32258;9,
7682;9,
7691;9,
7693;9,
65039;9,
7699;9,
7708;9,
7711;9,
32289;9,
56874;9,
15920;9,
7730;9,
7734;9,
7735;9,
48700;9,
7741;9,
40521;9,
15949;9,
15950;9,
15954;9,
7762;9,
7767;9,
15968;9,
40548;9,
15986;9,
7798;9,
32374;9,
7807;9,
7820;9,
24207;9,
7827;9,
7837;9,
48806;9,
7848;9,
7853;9,
7855;9,
7857;9,
65202;9,
40626;9,
7872;9,
73419;9,
73421;9,
73420;9,
73423;9,
73422;9,
73425;9,
24272;9,
73424;9,
73427;9,
73426;9,
65235;9,
32467;9,
73429;9,
73428;9,
73431;9,
73430;9,
73433;9,
73432;9,
73435;9,
7898;9,
73434;9,
73437;9,
73436;9,
73439;9,
24286;9,
73438;9,
73441;9,
73440;9,
73443;9,
73442;9,
73445;9,
65252;9,
73444;9,
73447;9,
73446;9,
7911;9,
24295;9,
73449;9,
73448;9,
73451;9,
73450;9,
7915;9,
73453;9,
48876;9,
73452;9,
48877;9,
73455;9,
48878;9,
73454;9,
48879;9,
73457;9,
48880;9,
73456;9,
48881;9,
73459;9,
48882;9,
73458;9,
48883;9,
73461;9,
48884;9,
73460;9,
7925;9,
48885;9,
73463;9,
48886;9,
73462;9,
48887;9,
73465;9,
48888;9,
73464;9,
48889;9,
73467;9,
16122;9,
73466;9,
48891;9,
73469;9,
48892;9,
73468;9,
48893;9,
73471;9,
48894;9,
73470;9,
16127;9,
48895;9,
73473;9,
48896;9,
73472;9,
48897;9,
73475;9,
32514;9,
48898;9,
73474;9,
7939;9,
48899;9,
73477;9,
7940;9,
48900;9,
73476;9,
48901;9,
16133;9,
73479;9,
48902;9,
73478;9,
48903;9,
73481;9,
48904;9,
73480;9,
48905;9,
73483;9,
40714;9,
48906;9,
73482;9,
32523;9,
7947;9,
48907;9,
73485;9,
48908;9,
73484;9,
7949;9,
48909;9,
73487;9,
57102;9,
48910;9,
73486;9,
48911;9,
73489;9,
48912;9,
73488;9,
48913;9,
73491;9,
48914;9,
73490;9,
73493;9,
48916;9,
73492;9,
48917;9,
73495;9,
48918;9,
73494;9,
32535;9,
48919;9,
73497;9,
7960;9,
48920;9,
73496;9,
48921;9,
73499;9,
48922;9,
73498;9,
24347;9,
40731;9,
48923;9,
73501;9,
48924;9,
16156;9,
73500;9,
7965;9,
48925;9,
73503;9,
48926;9,
16159;9,
73502;9,
48927;9,
73505;9,
48928;9,
73504;9,
48929;9,
7970;9,
73507;9,
73506;9,
48931;9,
73509;9,
48932;9,
73508;9,
48933;9,
73511;9,
48934;9,
73510;9,
48935;9,
73513;9,
7976;9,
48936;9,
73512;9,
48937;9,
73515;9,
48938;9,
73514;9,
48939;9,
73517;9,
48940;9,
73516;9,
48941;9,
73519;9,
48942;9,
73518;9,
48943;9,
73521;9,
48944;9,
73520;9,
48945;9,
73523;9,
48946;9,
73522;9,
48947;9,
73525;9,
48948;9,
7989;9,
73524;9,
48949;9,
73527;9,
7990;9,
48950;9,
73526;9,
48951;9,
73529;9,
48952;9,
73528;9,
48953;9,
73531;9,
48954;9,
73530;9,
48955;9,
73533;9,
48956;9,
73532;9,
48957;9,
73535;9,
48958;9,
73534;9,
48959;9,
73537;9,
16192;9,
40768;9,
48960;9,
73536;9,
48961;9,
73539;9,
48962;9,
73538;9,
48963;9,
73541;9,
48964;9,
73540;9,
48965;9,
73543;9,
8006;9,
48966;9,
73542;9,
48967;9,
73545;9,
48968;9,
73544;9,
48969;9,
73547;9,
48970;9,
73546;9,
48971;9,
73549;9,
24396;9,
48972;9,
73548;9,
48973;9,
73551;9,
8014;9,
48974;9,
73550;9,
48975;9,
73553;9,
57168;9,
48976;9,
73552;9,
48977;9,
73555;9,
48978;9,
73554;9,
8019;9,
48979;9,
73557;9,
48980;9,
73556;9,
8021;9,
40789;9,
48981;9,
73559;9,
73558;9,
48983;9,
73561;9,
48984;9,
73560;9,
48985;9,
73563;9,
48986;9,
73562;9,
8027;9,
48987;9,
73565;9,
48988;9,
73564;9,
48989;9,
73567;9,
73566;9,
73569;9,
73568;9,
73571;9,
8035;9,
73570;9,
73573;9,
73572;9,
8037;9,
73575;9,
73574;9,
73577;9,
73576;9,
73579;9,
73578;9,
73581;9,
73580;9,
73583;9,
73582;9,
73585;9,
73584;9,
73587;9,
73586;9,
8051;9,
73589;9,
73588;9,
8053;9,
73591;9,
73590;9,
73593;9,
73592;9,
73595;9,
73594;9,
73597;9,
16252;9,
73596;9,
73599;9,
73598;9,
32639;9,
73601;9,
8064;9,
73600;9,
73603;9,
73602;9,
73605;9,
73604;9,
73607;9,
73606;9,
73609;9,
73608;9,
73611;9,
73610;9,
73613;9,
16268;9,
73612;9,
73615;9,
49038;9,
24463;9,
73614;9,
73617;9,
73616;9,
73619;9,
73618;9,
8083;9,
73621;9,
73620;9,
73623;9,
73622;9,
73625;9,
73624;9,
73627;9,
8090;9,
73626;9,
73629;9,
73628;9,
73631;9,
73630;9,
73633;9,
73632;9,
73635;9,
24482;9,
73634;9,
73637;9,
8100;9,
73636;9,
73639;9,
73638;9,
73641;9,
73640;9,
73643;9,
8106;9,
73642;9,
73645;9,
73644;9,
73647;9,
73646;9,
73649;9,
16304;9,
8113;9,
73648;9,
73651;9,
73650;9,
73653;9,
73652;9,
8117;9,
73655;9,
73654;9,
49079;9,
8119;9,
73657;9,
73656;9,
73659;9,
73658;9,
73661;9,
73660;9,
73663;9,
8126;9,
73662;9,
40895;9,
73665;9,
73664;9,
73667;9,
73666;9,
8131;9,
73669;9,
73668;9,
73671;9,
73670;9,
73673;9,
8137;9,
73672;9,
73675;9,
73674;9,
73677;9,
73676;9,
73679;9,
73678;9,
73681;9,
73680;9,
73683;9,
73682;9,
73685;9,
73684;9,
73687;9,
73686;9,
73689;9,
73688;9,
8153;9,
73691;9,
73690;9,
8155;9,
73693;9,
73692;9,
73695;9,
73694;9,
73697;9,
73696;9,
73699;9,
73698;9,
73701;9,
73700;9,
73703;9,
8166;9,
73702;9,
73705;9,
73704;9,
73707;9,
73706;9,
73709;9,
8173;9,
73708;9,
73711;9,
73710;9,
73713;9,
16368;9,
73712;9,
73715;9,
73714;9,
73717;9,
16372;9,
73716;9,
73719;9,
8182;9,
73718;9,
73721;9,
73720;9,
8185;9,
73723;9,
8186;9,
73722;9,
73725;9,
73724;9,
73727;9,
73726;9,
